20181101 7819    aji 181807 182801 16 182305 ajisai_cpf_181101_8051.jax
20181101 7819    aji 201455 203308 83 202400 ajisai_cpf_181101_8051.jax
20181101 7819    aji 221902 223413 29 222636 ajisai_cpf_181101_8051.jax
20181101 7819    la1 133910 135218 11 134540 lageos1_cpf_181101_8051.jax
20181101 7819    la1 222142 231913 75 225045 lageos1_cpf_181101_8051.jax
20181101 7819    la2 134019 144522 56 141238 lageos2_cpf_181101_8051.jax
20181101 7819    la2 174641 184614 45 181533 lageos2_cpf_181101_8051.jax
20181101 7819    bec 182818 184331 43 183549 beaconc_cpf_181101_8051.sgf
20181101 7819    bec 202137 203754 61 202947 beaconc_cpf_181101_8051.sgf
20181101 7819    bec 221809 223142 28 222503 beaconc_cpf_181101_8051.sgf
20181101 7819    ci3 143928 232958 86 195228 compassi3_cpf_181101_8051.sha
