20181123 7819 010541 105426 110430 63 105938 10541_cpf_181123_8271.yno
20181123 7819 026899 123713 125434 41 125112 26899_cpf_181123_8271.yno
20181123 7819 025733 114259 115337 54 114818 25733_cpf_181123_8271.yno
20181123 7819 023774 110128 111358 57 110725 23774_cpf_181123_8271.yno
20181123 7819 023774 125010 125559 14 125304 23774_cpf_181123_8271.yno
20181123 7819 007434 115815 120809 43 120313 07434_cpf_181123_8271.yno
20181123 7819 016292 112148 113405 89 112757 16292_cpf_181123_8271.yno
20181123 7819 028522 103620 104834 66 104225 28522_cpf_181123_8271.yno
20181123 7819 010490 105527 111526 75 110732 10490_cpf_181123_8271.yno
20181123 7819 010490 130007 131535 71 130937 10490_cpf_181123_8271.yno
20181123 7819 010490 150417 151533 72 151103 10490_cpf_181123_8271.yno
20181123 7819 024773 104020 104413 11 104217 24773_cpf_181123_8271.yno
20181123 7819 024773 122056 123325 66 122708 24773_cpf_181123_8271.yno
20181123 7819 024797 103100 103901 19 103457 24797_cpf_181123_8271.yno
20181123 7819 024797 120943 122010 38 121450 24797_cpf_181123_8271.yno
20181123 7819 008874 113157 114433 90 113813 08874_cpf_181123_8271.yno
20181123 7819 033066 104657 105617 57 105138 33066_cpf_181123_8271.yno
20181123 7819 033066 123058 123637 16 123347 33066_cpf_181123_8271.yno
20181123 7819 027665 115257 120337 51 115817 27665_cpf_181123_8271.yno
20181123 7819 027665 133938 134956 39 134447 27665_cpf_181123_8271.yno
20181123 7819 027665 152828 153602 18 153215 27665_cpf_181123_8271.yno
