20181025 7819    aji 203153 204519 23 203836 ajisai_cpf_181025_7981.hts
20181025 7819    aji 223039 224854 77 223944 ajisai_cpf_181025_7981.hts
20181025 7819    la1 121823 130853 35 124253 lageos1_cpf_181025_7981.hts
20181025 7819    la1 212145 221348 42 214817 lageos1_cpf_181025_7981.hts
20181025 7819    la2 113000 113636 19 112930 lageos2_cpf_181025_7981.hts
20181025 7819    la2 145412 160013 63 152656 lageos2_cpf_181025_7981.hts
20181025 7819    la2 190115 195702 36 192815 lageos2_cpf_181025_7981.hts
20181025 7819    bec 195352 200436 19 195916 beaconc_cpf_181025_7981.hts
20181025 7819    bec 214430 220042 76 215247 beaconc_cpf_181025_7981.hts
20181025 7819    ci3 150651 232951 86 201951 compassi3_cpf_181025_7981.sha
