20181121 7819    aji 142218 143953 58 143105 ajisai_cpf_181121_8251.jax
20181121 7819    aji 162451 164125 38 163306 ajisai_cpf_181121_8251.jax
20181121 7819    aji 183254 184218 15 183736 ajisai_cpf_181121_8251.jax
20181121 7819    aji 203836 204839 16 204337 ajisai_cpf_181121_8251.jax
20181121 7819    aji 223923 225626 42 224755 ajisai_cpf_181121_8251.jax
20181121 7819    la1 113000 113601 20 112930 lageos1_cpf_181121_8251.jax
20181121 7819    la1 194930 203737 33 201404 lageos1_cpf_181121_8251.jax
20181121 7819    la1 231830 233000 33 233000 lageos1_cpf_181121_8251.jax
20181121 7819    la2 115530 130057 61 122759 lageos2_cpf_181121_8251.jax
20181121 7819    la2 160219 165829 37 162929 lageos2_cpf_181121_8251.jax
20181121 7819    bec 131046 132448 68 131725 beaconc_cpf_181121_8251.sgf
20181121 7819    bec 150616 151916 28 151217 beaconc_cpf_181121_8251.sgf
20181121 7819    bec 170211 171435 24 170813 beaconc_cpf_181121_8251.sgf
20181121 7819    bec 185613 191139 44 190349 beaconc_cpf_181121_8251.sgf
20181121 7819    bec 205002 210621 67 205811 beaconc_cpf_181121_8251.sgf
20181121 7819    bec 224711 225551 15 225132 beaconc_cpf_181121_8251.sgf
20181121 7819    ci3 132139 232939 87 183509 compassi3_cpf_181120_8241.sha
