H1 CPF  1  SGF 2018 11 18  2  8221 etalon1              
H2  8900103  525    19751 2018 11 17  0  0  0 2018 11 22 23 45  0   900 1 1  0 0 0
H9
10 0 58439      0.00000  0 -12236698.148   1549760.679  22358593.220
10 0 58439    900.00000  0 -11290608.064  -1068278.416  22871572.052
10 0 58439   1800.00000  0 -10524554.553  -3782709.777  22941475.623
10 0 58439   2700.00000  0  -9958274.807  -6527538.527  22566603.724
10 0 58439   3600.00000  0  -9599666.316  -9234404.592  21753859.124
10 0 58439   4500.00000  0  -9444522.609 -11835184.147  20518643.307
10 0 58439   5400.00000  0  -9476792.871 -14264596.289  18884588.451
10 0 58439   6300.00000  0  -9669357.155 -16462707.276  16883128.283
10 0 58439   7200.00000  0  -9985286.268 -18377228.522  14552913.575
10 0 58439   8100.00000  0 -10379535.234 -19965511.400  11939081.337
10 0 58439   9000.00000  0 -10801000.790 -21196153.711   9092390.017
10 0 58439   9900.00000  0 -11194855.534 -22050149.057   6068236.374
10 0 58439  10800.00000  0 -11505059.890 -22521528.562   2925572.754
10 0 58439  11700.00000  0 -11676944.754 -22617465.793   -274253.758
10 0 58439  12600.00000  0 -11659752.000 -22357839.639  -3468716.396
10 0 58439  13500.00000  0 -11409022.818 -21774272.673  -6595352.380
10 0 58439  14400.00000  0 -10888730.033 -20908685.507  -9593008.539
10 0 58439  15300.00000  0 -10073059.668 -19811429.890 -12403061.886
10 0 58439  16200.00000  0  -8947764.050 -18539080.978 -14970588.657
10 0 58439  17100.00000  0  -7511027.395 -17151984.137 -17245456.645
10 0 58439  18000.00000  0  -5773804.697 -15711663.075 -19183317.580
10 0 58439  18900.00000  0  -3759619.556 -14278200.797 -20746478.943
10 0 58439  19800.00000  0  -1503829.821 -12907705.804 -21904637.711
10 0 58439  20700.00000  0    947608.189 -11649971.988 -22635461.926
10 0 58439  21600.00000  0   3539823.385 -10546430.878 -22925009.665
10 0 58439  22500.00000  0   6211089.521  -9628481.953 -22767978.708
10 0 58439  23400.00000  0   8895173.991  -8916269.791 -22167783.906
10 0 58439  24300.00000  0  11523876.496  -8417956.977 -21136462.819
10 0 58439  25200.00000  0  14029651.199  -8129520.815 -19694413.596
10 0 58439  26100.00000  0  16348203.866  -8035078.856 -17869972.236
10 0 58439  27000.00000  0  18420956.529  -8107726.399 -15698839.249
10 0 58439  27900.00000  0  20197278.576  -8310848.405 -13223368.337
10 0 58439  28800.00000  0  21636393.958  -8599847.438 -10491731.978
10 0 58439  29700.00000  0  22708887.503  -8924213.453  -7556980.837
10 0 58439  30600.00000  0  23397750.218  -9229847.961  -4476015.407
10 0 58439  31500.00000  0  23698923.211  -9461543.366  -1308489.691
10 0 58439  32400.00000  0  23621319.944  -9565513.990   1884332.428
10 0 58439  33300.00000  0  23186327.758  -9491873.787   5040746.972
10 0 58439  34200.00000  0  22426811.499  -9196956.476   8099784.385
10 0 58439  35100.00000  0  21385661.427  -8645382.408  11002367.600
10 0 58439  36000.00000  0  20113945.886  -7811786.959  13692432.968
10 0 58439  36900.00000  0  18668745.734  -6682137.354  16117994.154
10 0 58439  37800.00000  0  17110759.457  -5254583.413  18232130.177
10 0 58439  38700.00000  0  15501777.093  -3539806.252  19993880.140
10 0 58439  39600.00000  0  13902126.940  -1560847.820  21369028.677
10 0 58439  40500.00000  0  12368199.425    647573.344  22330767.850
10 0 58439  41400.00000  0  10950149.878   3040234.351  22860223.160
10 0 58439  42300.00000  0   9689875.105   5563023.545  22946833.307
10 0 58439  43200.00000  0   8619347.488   8154935.336  22588575.559
10 0 58439  44100.00000  0   7759376.623  10750364.663  21792030.977
10 0 58439  45000.00000  0   7118850.917  13281609.221  20572286.287
10 0 58439  45900.00000  0   6694492.255  15681477.386  18952671.954
10 0 58439  46800.00000  0   6471136.310  17885894.651  16964338.976
10 0 58439  47700.00000  0   6422528.030  19836400.785  14645680.038
10 0 58439  48600.00000  0   6512600.811  21482432.771  12041603.964
10 0 58439  49500.00000  0   6697187.440  22783296.653   9202675.656
10 0 58439  50400.00000  0   6926090.271  23709744.018   6184137.050
10 0 58439  51300.00000  0   7145423.370  24245084.560   3044827.742
10 0 58439  52200.00000  0   7300127.090  24385785.511   -153973.361
10 0 58439  53100.00000  0   7336545.377  24141531.130  -3349761.520
10 0 58439  54000.00000  0   7204954.479  23534738.306  -6480049.217
10 0 58439  54900.00000  0   6861933.351  22599548.031  -9483612.175
10 0 58439  55800.00000  0   6272470.738  21380336.136 -12301711.331
10 0 58439  56700.00000  0   5411717.230  19929807.216 -14879264.246
10 0 58439  57600.00000  0   4266305.966  18306754.004 -17165940.748
10 0 58439  58500.00000  0   2835183.054  16573579.412 -19117159.432
10 0 58439  59400.00000  0   1129912.127  14793687.922 -20694964.327
10 0 58439  60300.00000  0   -825559.809  13028858.335 -21868764.083
10 0 58439  61200.00000  0  -2995665.914  11336710.246 -22615919.446
10 0 58439  62100.00000  0  -5334478.861   9768371.353 -22922168.440
10 0 58439  63000.00000  0  -7787411.779   8366443.567 -22781882.435
10 0 58439  63900.00000  0 -10293288.871   7163352.082 -22198149.960
10 0 58439  64800.00000  0 -12786697.599   6180144.514 -21182688.709
10 0 58439  65700.00000  0 -15200523.442   5425788.067 -19755589.606
10 0 58439  66600.00000  0 -17468561.651   4896990.472 -17944899.942
10 0 58439  67500.00000  0 -19528097.331   4578548.828 -15786055.517
10 0 58439  68400.00000  0 -21322347.387   4444208.874 -13321174.287
10 0 58439  69300.00000  0 -22802664.499   4457994.748 -10598226.342
10 0 58439  70200.00000  0 -23930413.297   4575951.200  -7670097.016
10 0 58439  71100.00000  0 -24678442.904   4748223.974  -4593561.522
10 0 58439  72000.00000  0 -25032097.211   4921388.727  -1428190.824
10 0 58439  72900.00000  0 -24989723.056   5040930.820   1764790.590
10 0 58439  73800.00000  0 -24562657.092   5053772.741   4923673.917
10 0 58439  74700.00000  0 -23774693.722   4910742.444   7987440.790
10 0 58439  75600.00000  0 -22661057.141   4568880.591  10896922.363
10 0 58439  76500.00000  0 -21266920.482   3993491.453  13595922.041
10 0 58439  77400.00000  0 -19645533.634   3159850.973  16032281.881
10 0 58439  78300.00000  0 -17856036.530   2054501.411  18158873.827
10 0 58439  79200.00000  0 -15961047.324    676078.459  19934498.262
10 0 58439  80100.00000  0 -14024124.223   -964365.920  21324673.827
10 0 58439  81000.00000  0 -12107204.432  -2843559.697  22302304.216
10 0 58439  81900.00000  0 -10268125.013  -4926720.204  22848209.492
10 0 58439  82800.00000  0  -8558327.353  -7168751.215  22951511.508
10 0 58439  83700.00000  0  -7020839.696  -9515880.830  22609865.202
10 0 58439  84600.00000  0  -5688621.720 -11907675.475  21829529.908
10 0 58439  85500.00000  0  -4583340.219 -14279349.941  20625277.378
10 0 58440      0.00000  0  -3714627.985 -16564279.679  19020135.958
10 0 58440    900.00000  0  -3079858.760 -18696612.576  17044973.328
10 0 58440   1800.00000  0  -2664448.722 -20613872.457  14737923.323
10 0 58440   2700.00000  0  -2442673.709 -22259445.311  12143665.648
10 0 58440   3600.00000  0  -2378969.851 -23584843.201   9312570.572
10 0 58440   4500.00000  0  -2429662.626 -24551649.285   6299723.996
10 0 58440   5400.00000  0  -2545051.861 -25133059.877   3163851.441
10 0 58440   6300.00000  0  -2671764.462 -25314956.162    -33837.787
10 0 58440   7200.00000  0  -2755272.382 -25096458.148  -3230862.486
10 0 58440   8100.00000  0  -2742467.343 -24489935.593  -6364712.005
10 0 58440   9000.00000  0  -2584180.842 -23520474.174  -9374092.660
10 0 58440   9900.00000  0  -2237538.052 -22224819.297 -12200151.095
10 0 58440  10800.00000  0  -1668043.324 -20649842.652 -14787648.035
10 0 58440  11700.00000  0   -851306.603 -18850597.530 -17086057.171
10 0 58440  12600.00000  0    225665.792 -16888047.022 -19050565.716
10 0 58440  13500.00000  0   1563671.410 -14826562.927 -20642955.846
10 0 58440  14400.00000  0   3151037.079 -12731302.834 -21832349.259
10 0 58440  15300.00000  0   4963881.914 -10665577.455 -22595800.498
10 0 58440  16200.00000  0   6966905.542  -8688319.774 -22918728.328
10 0 58440  17100.00000  0   9114667.152  -6851762.573 -22795178.205
10 0 58440  18000.00000  0  11353300.953  -5199420.774 -22227912.546
10 0 58440  18900.00000  0  13622594.443  -3764461.373 -21228329.140
10 0 58440  19800.00000  0  15858341.522  -2568527.061 -19816211.400
10 0 58440  20700.00000  0  17994871.772  -1621059.102 -18019317.390
10 0 58440  21600.00000  0  19967650.027   -919144.364 -15872817.421
10 0 58440  22500.00000  0  21715838.357   -447889.834 -13418592.642
10 0 58440  23400.00000  0  23184714.835   -181304.557 -10704409.384
10 0 58440  24300.00000  0  24327849.744    -83649.306  -7782985.978
10 0 58440  25200.00000  0  25108950.566   -111195.609  -4710970.391
10 0 58440  26100.00000  0  25503300.972   -214317.441  -1547848.369
10 0 58440  27000.00000  0  25498736.019   -339827.343   1645197.316
10 0 58440  27900.00000  0  25096114.845   -433459.367   4806455.389
10 0 58440  28800.00000  0  24309272.736   -442393.622   7874860.953
10 0 58440  29700.00000  0  23164455.583   -317717.903  10791155.518
10 0 58440  30600.00000  0  21699260.655    -16724.681  13499011.445
10 0 58440  31500.00000  0  19961127.490    495053.284  15946100.828
10 0 58440  32400.00000  0  18005440.744   1242152.669  18085089.907
10 0 58440  33300.00000  0  15893322.369   2237904.961  19874541.442
10 0 58440  34200.00000  0  13689202.980   3483632.471  21279708.934
10 0 58440  35100.00000  0  11458271.149   4968349.337  22273208.308
10 0 58440  36000.00000  0   9263904.563   6668981.920  22835554.557
10 0 58440  36900.00000  0   7165187.783   8551103.004  22955552.819
10 0 58440  37800.00000  0   5214618.280  10570151.957  22630535.578
10 0 58440  38700.00000  0   3456095.551  12673093.489  21866440.066
10 0 58440  39600.00000  0   1923276.482  14800449.692  20677722.423
10 0 58440  40500.00000  0    638366.036  16888623.338  19087107.991
10 0 58440  41400.00000  0   -388604.749  18872417.903  17125180.024
10 0 58440  42300.00000  0  -1159982.517  20687650.626  14829812.198
10 0 58440  43200.00000  0  -1690166.762  22273749.549  12245453.640
10 0 58440  44100.00000  0  -2004767.994  23576225.305   9422278.393
10 0 58440  45000.00000  0  -2139284.288  24548912.296   6415214.630
10 0 58440  45900.00000  0  -2137351.205  25155882.879   3282872.030
10 0 58440  46800.00000  0  -2048638.701  25372951.461     86388.489
10 0 58440  47700.00000  0  -1926486.477  25188702.291  -3111780.143
10 0 58440  48600.00000  0  -1825379.391  24604995.299  -6249101.849
10 0 58440  49500.00000  0  -1798371.955  23636926.858  -9264215.202
10 0 58440  50400.00000  0  -1894575.547  22312246.019 -12098154.062
10 0 58440  51300.00000  0  -2156817.371  20670250.817 -14695523.653
10 0 58440  52200.00000  0  -2619572.868  18760211.985 -17005602.673
10 0 58440  53100.00000  0  -3307262.842  16639391.885 -18983347.921
10 0 58440  54000.00000  0  -4232988.478  14370744.044 -20590280.527
10 0 58440  54900.00000  0  -5397758.391  12020392.154 -21795235.916
10 0 58440  55800.00000  0  -6790241.460   9654996.181 -22574962.981
10 0 58440  56700.00000  0  -8387054.703   7339117.443 -22914561.652
10 0 58440  57600.00000  0 -10153572.920   5132693.884 -22807751.731
10 0 58440  58500.00000  0 -12045225.192   3088730.629 -22256969.589
10 0 58440  59400.00000  0 -14009221.913   1251301.252 -21273292.931
10 0 58440  60300.00000  0 -15986638.672   -346058.523 -19876197.226
10 0 58440  61200.00000  0 -17914768.929  -1681500.966 -18093150.599
10 0 58440  62100.00000  0 -19729646.300  -2745515.585 -15959056.917
10 0 58440  63000.00000  0 -21368631.246  -3541053.498 -13515559.371
10 0 58440  63900.00000  0 -22772954.620  -4083126.303 -10810219.223
10 0 58440  64800.00000  0 -23890112.974  -4397899.368  -7895586.395
10 0 58440  65700.00000  0 -24676017.365  -4521319.791  -4828180.141
10 0 58440  66600.00000  0 -25096807.572  -4497339.934  -1667399.467
10 0 58440  67500.00000  0 -25130258.038  -4375812.052   1525616.131
10 0 58440  68400.00000  0 -24766718.811  -4210142.366   4689154.516
10 0 58440  69300.00000  0 -24009553.499  -4054804.379   7762105.922
10 0 58440  70200.00000  0 -22875057.151  -3962814.583  10685123.904
10 0 58440  71100.00000  0 -21391857.993  -3983274.998  13401751.475
10 0 58440  72000.00000  0 -19599827.499  -4159085.873  15859492.415
10 0 58440  72900.00000  0 -17548543.342  -4524922.828  18010808.801
10 0 58440  73800.00000  0 -15295367.669  -5105562.270  19814027.139
10 0 58440  74700.00000  0 -12903218.368  -5914626.312  21234136.926
10 0 58440  75600.00000  0 -10438123.594  -6953799.828  22243467.197
10 0 58440  76500.00000  0  -7966658.826  -8212553.750  22822228.466
10 0 58440  77400.00000  0  -5553370.264  -9668389.202  22958909.467
10 0 58440  78300.00000  0  -3258289.718 -11287594.674  22650520.298
10 0 58440  79200.00000  0  -1134643.085 -13026487.957  21902675.926
10 0 58440  80100.00000  0    773153.449 -14833094.721  20729516.532
10 0 58440  81000.00000  0   2431125.949 -16649196.495  19153463.937
10 0 58440  81900.00000  0   3816934.876 -18412665.302  17204816.288
10 0 58440  82800.00000  0   4920576.559 -20059989.111  14921186.268
10 0 58440  83700.00000  0   5744562.944 -21528883.128  12346791.421
10 0 58440  84600.00000  0   6303569.991 -22760877.488   9531608.406
10 0 58440  85500.00000  0   6623569.230 -23703771.205   6530406.361
10 0 58441      0.00000  0   6740477.924 -24313847.231   3401677.691
10 0 58441    900.00000  0   6698384.098 -24557752.929    206487.362
10 0 58441   1800.00000  0   6547423.468 -24413963.452  -2992735.710
10 0 58441   2700.00000  0   6341399.201 -23873763.634  -6133439.765
10 0 58441   3600.00000  0   6135247.047 -22941704.780  -9154197.276
10 0 58441   4500.00000  0   5982457.447 -21635515.009 -11995930.979
10 0 58441   5400.00000  0   5932566.358 -19985466.339 -14603092.237
10 0 58441   6300.00000  0   6028823.658 -18033225.374 -16924766.346
10 0 58441   7200.00000  0   6306141.781 -15830236.653 -18915681.190
10 0 58441   8100.00000  0   6789412.755 -13435708.334 -20537098.208
10 0 58441   9000.00000  0   7492265.807 -10914286.868 -21757567.702
10 0 58441   9900.00000  0   8416319.310  -8333519.829 -22553533.839
10 0 58441  10800.00000  0   9550957.678  -5761214.884 -22909778.380
10 0 58441  11700.00000  0  10873641.512  -3262806.644 -22819695.903
10 0 58441  12600.00000  0  12350736.939   -898841.251 -22285396.939
10 0 58441  13500.00000  0  13938827.177   1277316.838 -21317639.114
10 0 58441  14400.00000  0  15586449.702   3221461.449 -19935589.773
10 0 58441  15300.00000  0  17236184.804   4900125.265 -18166426.745
10 0 58441  16200.00000  0  18827006.790   6291701.360 -16044786.898
10 0 58441  17100.00000  0  20296799.144   7387061.974 -13612074.680
10 0 58441  18000.00000  0  21584928.230   8189653.279 -10915645.257
10 0 58441  18900.00000  0  22634768.531   8715065.475  -8007878.838
10 0 58441  19800.00000  0  23396075.283   8990098.894  -4945164.402
10 0 58441  20700.00000  0  23827106.343   9051368.976  -1786812.434
10 0 58441  21600.00000  0  23896406.505   8943510.081   1406082.790
10 0 58441  22500.00000  0  23584181.605   8717053.980   4571810.300
10 0 58441  23400.00000  0  22883206.026   8426073.665   7649217.493
10 0 58441  24300.00000  0  21799226.998   8125690.443  10578871.928
10 0 58441  25200.00000  0  20350849.529   7869547.538  13304189.114
10 0 58441  26100.00000  0  18568906.147   7707356.334  15772506.204
10 0 58441  27000.00000  0  16495337.067   7682616.321  17936082.630
10 0 58441  27900.00000  0  14181625.998   7830602.985  19753009.991
10 0 58441  28800.00000  0  11686854.119   8176708.483  21188014.953
10 0 58441  29700.00000  0   9075450.746   8735204.045  22213140.648
10 0 58441  30600.00000  0   6414731.522   9508476.635  22808293.903
10 0 58441  31500.00000  0   3772323.268  10486774.130  22961647.616
10 0 58441  32400.00000  0   1213580.123  11648471.518  22669889.802
10 0 58441  33300.00000  0  -1200903.386  12960849.977  21938313.175
10 0 58441  34200.00000  0  -3417580.745  14381359.676  20780741.650
10 0 58441  35100.00000  0  -5391948.474  15859316.368  19219292.900
10 0 58441  36000.00000  0  -7090164.037  17337963.840  17283979.037
10 0 58441  36900.00000  0  -8490218.959  18756817.861  15012150.560
10 0 58441  37800.00000  0  -9582616.493  20054194.584  12447792.032
10 0 58441  38700.00000  0 -10370523.420  21169817.854   9640681.174
10 0 58441  39600.00000  0 -10869389.054  22047394.593   6645426.438
10 0 58441  40500.00000  0 -11106046.038  22637048.254   3520401.248
10 0 58441  41400.00000  0 -11117329.758  22897505.630    326595.894
10 0 58441  42300.00000  0 -10948276.099  22797941.235  -2873589.390
10 0 58441  43200.00000  0 -10649974.407  22319398.616  -6017584.824
10 0 58441  44100.00000  0 -10277167.878  21455726.037  -9043898.450
10 0 58441  45000.00000  0  -9885706.813  20213984.169 -11893343.446
10 0 58441  45900.00000  0  -9529964.968  18614307.406 -14510218.752
10 0 58441  46800.00000  0  -9260331.020  16689224.248 -16843417.554
10 0 58441  47700.00000  0  -9120885.288  14482465.136 -18847439.948
10 0 58441  48600.00000  0  -9147361.636  12047309.197 -20483288.661
10 0 58441  49500.00000  0  -9365482.021   9444541.036 -21719229.717
10 0 58441  50400.00000  0  -9789735.524   6740104.586 -22531403.273
10 0 58441  51300.00000  0 -10422652.641   4002554.139 -22904273.519
10 0 58441  52200.00000  0 -11254604.444   1300410.619 -22830910.251
10 0 58441  53100.00000  0 -12264133.915  -1300466.351 -22313098.435
10 0 58441  54000.00000  0 -13418803.224  -3739380.932 -21361275.686
10 0 58441  54900.00000  0 -14676519.505  -5963074.580 -19994301.058
10 0 58441  55800.00000  0 -15987281.532  -7927678.353 -18239061.673
10 0 58441  56700.00000  0 -17295272.289  -9600265.152 -16129926.751
10 0 58441  57600.00000  0 -18541208.971 -10959940.021 -13708061.136
10 0 58441  58500.00000  0 -19664851.017 -11998427.420 -11020612.855
10 0 58441  59400.00000  0 -20607561.302 -12720134.283  -8119791.224
10 0 58441  60300.00000  0 -21314814.275 -13141689.155  -5061853.647
10 0 58441  61200.00000  0 -21738546.508 -13290980.645  -1906020.687
10 0 58441  62100.00000  0 -21839252.931 -13205737.378   1286660.116
10 0 58441  63000.00000  0 -21587742.915 -12931709.943   4454480.577
10 0 58441  63900.00000  0 -20966483.451 -12520532.967   7536246.986
10 0 58441  64800.00000  0 -19970474.704 -12027356.437  10472442.734
10 0 58441  65700.00000  0 -18607622.282 -11508344.483  13206357.704
10 0 58441  66600.00000  0 -16898589.953 -11018146.572  15685164.300
10 0 58441  67500.00000  0 -14876138.577 -10607445.216  17860921.114
10 0 58441  68400.00000  0 -12583977.530 -10320681.356  19691486.496
10 0 58441  69300.00000  0 -10075173.709 -10194052.662  21141325.732
10 0 58441  70200.00000  0  -7410181.965 -10253867.501  22182197.242
10 0 58441  71100.00000  0  -4654575.986 -10515323.515  22793705.070
10 0 58441  72000.00000  0  -1876570.359 -10981763.480  22963706.896
10 0 58441  72900.00000  0    855565.932 -11644440.784  22688568.999
10 0 58441  73800.00000  0   3476099.354 -12482806.807  21973261.944
10 0 58441  74700.00000  0   5924319.735 -13465311.114  20831293.258
10 0 58441  75600.00000  0   8146823.585 -14550683.656  19284476.148
10 0 58441  76500.00000  0  10099497.648 -15689648.403  17362536.170
10 0 58441  77400.00000  0  11749120.052 -16826998.635  15102560.909
10 0 58441  78300.00000  0  13074510.775 -17903948.378  12548300.991
10 0 58441  79200.00000  0  14067181.274 -18860662.283   9749334.004
10 0 58441  80100.00000  0  14731455.232 -19638856.518   6760106.276
10 0 58441  81000.00000  0  15084053.601 -20184359.926   3638870.594
10 0 58441  81900.00000  0  15153159.967 -20449525.641    446540.757
10 0 58441  82800.00000  0  14977006.435 -20395387.681  -2754513.603
10 0 58441  83700.00000  0  14602039.966 -19993468.635  -5901706.639
10 0 58441  84600.00000  0  14080747.609 -19227159.291  -8933483.889
10 0 58441  85500.00000  0  13469235.956 -18092608.382 -11790550.829
10 0 58442      0.00000  0  12824669.440 -16599083.188 -14417055.723
10 0 58442    900.00000  0  12202678.440 -14768784.783 -16761701.260
10 0 58442   1800.00000  0  11654850.730 -12636124.639 -18778761.207
10 0 58442   2700.00000  0  11226414.239 -10246493.824 -20428980.849
10 0 58442   3600.00000  0  10954210.614  -7654577.855 -21680342.989
10 0 58442   4500.00000  0  10865046.822  -4922288.767 -22508684.599
10 0 58442   5400.00000  0  10974493.859  -2116402.936 -22898152.880
10 0 58442   6300.00000  0  11286182.374    693994.985 -22841493.205
10 0 58442   7200.00000  0  11791623.645   3440154.871 -22340165.111
10 0 58442   8100.00000  0  12470561.007   6056279.958 -21404286.162
10 0 58442   9000.00000  0  13291834.858   8482012.856 -20052406.907
10 0 58442   9900.00000  0  14214722.438  10664687.155 -18311123.393
10 0 58442  10800.00000  0  15190693.893  12561252.810 -16214536.658
10 0 58442  11700.00000  0  16165509.640  14139797.584 -13803571.226
10 0 58442  12600.00000  0  17081569.408  15380605.117 -11125167.060
10 0 58442  13500.00000  0  17880414.035  16276708.720  -8231361.430
10 0 58442  14400.00000  0  18505275.748  16833920.779  -5178278.787
10 0 58442  15300.00000  0  18903569.858  17070340.526  -2025048.177
10 0 58442  16200.00000  0  19029224.854  17015363.030   1167331.338
10 0 58442  17100.00000  0  18844755.036  16708232.295   4337156.212
10 0 58442  18000.00000  0  18322989.310  16196201.195   7423193.512
10 0 58442  18900.00000  0  17448385.339  15532375.223  10365844.318
10 0 58442  19800.00000  0  16217875.196  14773329.569  13108274.668
10 0 58442  20700.00000  0  14641206.440  13976599.415  15597493.899
10 0 58442  21600.00000  0  12740764.262  13198146.720  17785361.323
10 0 58442  22500.00000  0  10550881.114  12489907.799  19629503.479
10 0 58442  23400.00000  0   8116659.776  11897523.832  21094125.569
10 0 58442  24300.00000  0   5492356.636  11458347.740  22150702.448
10 0 58442  25200.00000  0   2739389.528  11199810.279  22778536.345
10 0 58442  26100.00000  0    -75950.961  11138214.413  22965170.471
10 0 58442  27000.00000  0  -2884994.540  11278008.976  22706649.851
10 0 58442  27900.00000  0  -5619287.712  11611573.829  22007623.075
10 0 58442  28800.00000  0  -8213188.690  12119527.819  20881281.123
10 0 58442  29700.00000  0 -10606354.101  12771549.026  19349132.213
10 0 58442  30600.00000  0 -12746014.383  13527675.903  17440614.486
10 0 58442  31500.00000  0 -14588943.428  14340036.753  15192551.447
10 0 58442  32400.00000  0 -16103039.061  15154936.727  12648458.381
10 0 58442  33300.00000  0 -17268446.401  15915216.119   9857711.174
10 0 58442  34200.00000  0 -18078175.960  16562779.923   6874592.373
10 0 58442  35100.00000  0 -18538188.513  17041191.323   3757232.442
10 0 58442  36000.00000  0 -18666941.353  17298218.246    566467.003
10 0 58442  36900.00000  0 -18494415.126  17288221.772  -2635366.567
10 0 58442  37800.00000  0 -18060661.967  16974282.729  -5785667.977
10 0 58442  38700.00000  0 -17413936.726  16329973.727  -8822821.831
10 0 58442  39600.00000  0 -16608492.908  15340697.622 -11687427.411
10 0 58442  40500.00000  0 -15702138.473  14004533.765 -14323483.726
10 0 58442  41400.00000  0 -14753657.242  12332554.810 -16679504.268
10 0 58442  42300.00000  0 -13820208.619  10348598.809 -18709537.629
10 0 58442  43200.00000  0 -12954817.608   8088506.530 -20374072.653
10 0 58442  44100.00000  0 -12204062.913   5598856.927 -21640809.762
10 0 58442  45000.00000  0 -11606062.531   2935254.241 -22485283.434
10 0 58442  45900.00000  0 -11188841.616    160240.368 -22891324.423
10 0 58442  46800.00000  0 -10969150.774  -2659078.569 -22851354.073
10 0 58442  47700.00000  0 -10951783.302  -5453591.725 -22366506.738
10 0 58442  48600.00000  0 -11129417.624  -8154821.404 -21446580.007
10 0 58442  49500.00000  0 -11482989.275 -10697529.226 -20109815.829
10 0 58442  50400.00000  0 -11982573.847 -13022183.395 -18382518.903
10 0 58442  51300.00000  0 -12588741.118 -15077185.733 -16298521.636
10 0 58442  52200.00000  0 -13254321.682 -16820767.780 -13898507.631
10 0 58442  53100.00000  0 -13926509.511 -18222480.431 -11229208.062
10 0 58442  54000.00000  0 -14549211.242 -19264217.994  -8342487.313
10 0 58442  54900.00000  0 -15065543.656 -19940736.871  -5294335.949
10 0 58442  55800.00000  0 -15420373.772 -20259651.062  -2143790.476
10 0 58442  56700.00000  0 -15562796.045 -20240907.126   1048199.670
10 0 58442  57600.00000  0 -15448444.362 -19915762.298   4219936.862
10 0 58442  58500.00000  0 -15041542.007 -19325310.765   7310150.376
10 0 58442  59400.00000  0 -14316605.369 -18518620.063  10259160.579
10 0 58442  60300.00000  0 -13259731.333 -17550555.103  13010011.400
10 0 58442  61200.00000  0 -11869413.816 -16479380.967  15509550.933
10 0 58442  62100.00000  0 -10156855.556 -15364243.062  17709441.078
10 0 58442  63000.00000  0  -8145761.416 -14262628.201  19567078.378
10 0 58442  63900.00000  0  -5871619.119 -13227911.866  21046409.663
10 0 58442  64800.00000  0  -3380495.364 -12307092.280  22118627.762
10 0 58442  65700.00000  0   -727394.581 -11538804.940  22762734.417
10 0 58442  66600.00000  0   2025755.499 -10951700.535  22965959.460
10 0 58442  67500.00000  0   4812410.801 -10563253.972  22724027.517
10 0 58442  68400.00000  0   7563917.562 -10379055.475  22041265.811
10 0 58442  69300.00000  0  10212117.807 -10392615.023  20930549.152
10 0 58442  70200.00000  0  12691946.998 -10585690.253  19413080.915
10 0 58442  71100.00000  0  14943916.689 -10929126.828  17518011.724
10 0 58442  72000.00000  0  16916379.434 -11384177.816  15281900.646
10 0 58442  72900.00000  0  18567480.515 -11904248.624  12748026.970
10 0 58442  73800.00000  0  19866713.255 -12436995.905   9965563.907
10 0 58442  74700.00000  0  20796011.502 -12926691.551   6988628.913
10 0 58442  75600.00000  0  21350331.209 -13316751.812   3875228.492
10 0 58442  76500.00000  0  21537694.540 -13552323.788    686118.185
10 0 58442  77400.00000  0  21378693.986 -13582816.502  -2516398.999
10 0 58442  78300.00000  0  20905476.514 -13364266.990  -5669710.538
10 0 58442  79200.00000  0  20160250.528 -12861438.520  -8712142.331
10 0 58442  80100.00000  0  19193380.585 -12049557.726 -11584189.617
10 0 58442  81000.00000  0  18061151.875 -10915614.802 -14229704.164
10 0 58442  81900.00000  0  16823301.114  -9459169.892 -16597012.108
10 0 58442  82800.00000  0  15540421.483  -7692629.002 -18639938.518
10 0 58442  83700.00000  0  14271353.416  -5640977.675 -20318717.238
10 0 58442  84600.00000  0  13070673.343  -3340983.999 -21600767.548
10 0 58442  85500.00000  0  11986388.243   -839904.364 -22461322.441
10 0 58443      0.00000  0  11057933.361   1806252.064 -22883897.018
10 0 58443    900.00000  0  10314557.080   4534825.943 -22860589.159
10 0 58443   1800.00000  0   9774159.718   7278888.849 -22392208.388
10 0 58443   2700.00000  0   9442632.737   9969802.195 -21488232.459
10 0 58443   3600.00000  0   9313723.736  12539846.735 -20166594.668
10 0 58443   4500.00000  0   9369429.602  14924813.876 -18453308.115
10 0 58443   5400.00000  0   9580898.220  17066451.666 -16381936.133
10 0 58443   6300.00000  0   9909798.549  18914665.175 -13992920.744
10 0 58443   7200.00000  0  10310098.411  20429382.423 -11332783.437
10 0 58443   8100.00000  0  10730173.774  21582010.685  -8453214.577
10 0 58443   9000.00000  0  11115160.452  22356425.245  -5410069.464
10 0 58443   9900.00000  0  11409448.019  22749452.841  -2262290.453
10 0 58443  10800.00000  0  11559211.877  22770832.152    929224.430
10 0 58443  11700.00000  0  11514878.502  22442654.971   4102785.388
10 0 58443  12600.00000  0  11233420.247  21798313.661   7197085.877
10 0 58443  13500.00000  0  10680385.114  20880999.537  10152367.509
10 0 58443  14400.00000  0   9831577.900  19741814.807  12911554.005
10 0 58443  15300.00000  0   8674321.694  18437577.052  15421334.032
10 0 58443  16200.00000  0   7208247.549  17028406.492  17633173.769
10 0 58443  17100.00000  0   5445578.997  15575195.037  19504241.337
10 0 58443  18000.00000  0   3410897.001  14137061.555  20998226.622
10 0 58443  18900.00000  0   1140393.478  12768897.484  22086041.698
10 0 58443  19800.00000  0  -1319358.195  11519103.722  22746388.899
10 0 58443  20700.00000  0  -3913068.625  10427612.524  22966185.528
10 0 58443  21600.00000  0  -6578767.644   9524276.311  22740836.383
10 0 58443  22500.00000  0  -9250128.036   8827691.217  22074347.576
10 0 58443  23400.00000  0 -11858984.771   8344505.408  20979277.637
10 0 58443  24300.00000  0 -14337947.047   8069242.572  19476524.612
10 0 58443  25200.00000  0 -16622995.898   7984650.343  17594950.748
10 0 58443  26100.00000  0 -18655960.133   8062560.559  15370849.468
10 0 58443  27000.00000  0 -20386766.730   8265227.226  12847262.575
10 0 58443  27900.00000  0 -21775370.285   8547087.913  10073158.908
10 0 58443  28800.00000  0 -22793279.281   8856874.142   7102489.018
10 0 58443  29700.00000  0 -23424612.841   9139981.909   3993133.598
10 0 58443  30600.00000  0 -23666641.154   9341001.718    805766.266
10 0 58443  31500.00000  0 -23529785.449   9406297.934  -2397346.122
10 0 58443  32400.00000  0 -23037076.079   9286526.093  -5553580.528
10 0 58443  33300.00000  0 -22223090.921   8938978.969  -8601205.792
10 0 58443  34200.00000  0 -21132419.851   8329657.460 -11480614.677
10 0 58443  35100.00000  0 -19817721.233   7434976.069 -14135513.182
10 0 58443  36000.00000  0 -18337454.269   6243028.590 -16514041.430
10 0 58443  36900.00000  0 -16753385.829   4754357.341 -18569802.142
10 0 58443  37800.00000  0 -15127979.185   2982192.887 -20262775.136
10 0 58443  38700.00000  0 -13521776.909    952154.090 -21560099.287
10 0 58443  39600.00000  0 -11990890.197  -1298579.476 -22436706.611
10 0 58443  40500.00000  0 -10584700.921  -3722586.484 -22875796.823
10 0 58443  41400.00000  0  -9343873.112  -6263957.499 -22869144.399
10 0 58443  42300.00000  0  -8298756.435  -8860409.188 -22417233.896
10 0 58443  43200.00000  0  -7468246.604 -11445669.188 -21529222.938
10 0 58443  44100.00000  0  -6859148.277 -13952031.244 -20222735.732
10 0 58443  45000.00000  0  -6466063.627 -16312974.277 -18523493.228
10 0 58443  45900.00000  0  -6271807.934 -18465736.476 -16464789.045
10 0 58443  46800.00000  0  -6248332.005 -20353738.224 -14086822.929
10 0 58443  47700.00000  0  -6358108.937 -21928755.036 -11435905.959
10 0 58443  48600.00000  0  -6555924.838 -23152752.091  -8563553.746
10 0 58443  49500.00000  0  -6790997.196 -23999306.384  -5525485.581
10 0 58443  50400.00000  0  -7009329.788 -24454560.218  -2380548.919
10 0 58443  51300.00000  0  -7156205.374 -24517668.761    810410.421
10 0 58443  52200.00000  0  -7178712.448 -24200725.070   3985711.344
10 0 58443  53100.00000  0  -7028199.432 -23528167.847   7084012.480
10 0 58443  54000.00000  0  -6662554.914 -22535697.601  10045477.827
10 0 58443  54900.00000  0  -6048219.863 -21268746.646  12812912.200
10 0 58443  55800.00000  0  -5161846.990 -19780566.844  15332846.272
10 0 58443  56700.00000  0  -3991538.740 -18130013.648  17556552.034
10 0 58443  57600.00000  0  -2537612.201 -16379117.235  19440970.764
10 0 58443  58500.00000  0   -812856.789 -14590540.425  20949536.965
10 0 58443  59400.00000  0   1157727.281 -12825027.144  22052883.442
10 0 58443  60300.00000  0   3337701.236 -11138945.934  22729414.486
10 0 58443  61200.00000  0   5680442.472  -9582029.492  22965736.087
10 0 58443  62100.00000  0   8130832.575  -8195403.318  22756934.261
10 0 58443  63000.00000  0  10627311.879  -7009985.593  22106694.867
10 0 58443  63900.00000  0  13104218.913  -6045325.251  21027260.830
10 0 58443  64800.00000  0  15494319.829  -5308927.753  19539225.340
10 0 58443  65700.00000  0  17731424.448  -4796098.721  17671162.527
10 0 58443  66600.00000  0  19752981.205  -4490313.167  15459100.187
10 0 58443  67500.00000  0  21502542.548  -4364096.752  12945842.380
10 0 58443  68400.00000  0  22931996.732  -4380384.131  10180153.000
10 0 58443  69300.00000  0  24003471.079  -4494297.146   7215814.772
10 0 58443  70200.00000  0  24690824.525  -4655268.400   4110581.308
10 0 58443  71100.00000  0  24980664.213  -4809420.466    925042.704
10 0 58443  72000.00000  0  24872841.297  -4902097.263  -2278572.218
10 0 58443  72900.00000  0  24380403.140  -4880438.580  -5437631.986
10 0 58443  73800.00000  0  23529002.699  -4695886.354  -8490350.549
10 0 58443  74700.00000  0  22355790.027  -4306511.900 -11377020.369
10 0 58443  75600.00000  0  20907833.212  -3679062.894 -14041203.766
10 0 58443  76500.00000  0  19240136.712  -2790640.992 -16430856.810
10 0 58443  77400.00000  0  17413342.976  -1629935.508 -18499361.674
10 0 58443  78300.00000  0  15491216.369   -197960.073 -20206445.793
10 0 58443  79200.00000  0  13538017.635   1491739.292 -21518969.117
10 0 58443  80100.00000  0  11615881.389   3413414.436 -22411564.003
10 0 58443  81000.00000  0   9782307.943   5529968.525 -22867115.932
10 0 58443  81900.00000  0   8087875.278   7794295.587 -22877076.941
10 0 58443  82800.00000  0   6574266.446  10151049.267 -22441607.383
10 0 58443  83700.00000  0   5272693.455  12538765.013 -21569545.292
10 0 58443  84600.00000  0   4202781.590  14892245.869 -20278206.081
10 0 58443  85500.00000  0   3371957.384  17145111.974 -18593018.599
10 0 58444      0.00000  0   2775362.478  19232407.079 -16547006.535
10 0 58444    900.00000  0   2396293.919  21093153.998 -14180126.866
10 0 58444   1800.00000  0   2207148.176  22672753.806 -11538479.483
10 0 58444   2700.00000  0   2170826.577  23925130.419  -8673404.181
10 0 58444   3600.00000  0   2242541.439  24814533.292  -5640482.912
10 0 58444   4500.00000  0   2371944.286  25316925.530  -2498466.645
10 0 58444   5400.00000  0   2505486.359  25420901.861    691852.799
10 0 58444   6300.00000  0   2588912.815  25128100.298   3868804.973
10 0 58444   7200.00000  0   2569784.931  24453092.214   6971015.712
10 0 58444   8100.00000  0   2399925.913  23422756.561   9938573.462
10 0 58444   9000.00000  0   2037689.253  22075164.812  12714166.163
10 0 58444   9900.00000  0   1449954.117  20458023.035  15244168.467
10 0 58444  10800.00000  0    613765.476  18626735.096  17479660.064
10 0 58444  11700.00000  0   -482449.189  16642166.134  19377357.159
10 0 58444  12600.00000  0  -1838139.245  14568197.623  20900440.518
10 0 58444  13500.00000  0  -3440397.979  12469173.548  22019265.171
10 0 58444  14400.00000  0  -5264249.095  10407341.859  22711938.679
10 0 58444  15300.00000  0  -7273444.295   8440395.730  22964756.804
10 0 58444  16200.00000  0  -9421741.539   6619215.399  22772487.580
10 0 58444  17100.00000  0 -11654614.223   4985903.957  22138497.093
10 0 58444  18000.00000  0 -13911324.003   3572198.480  21074712.763
10 0 58444  18900.00000  0 -16127273.673   2398323.250  19601422.619
10 0 58444  19800.00000  0 -18236544.426   1472334.514  17746911.955
10 0 58444  20700.00000  0 -20174513.357    789985.001  15546941.827
10 0 58444  21600.00000  0 -21880442.163    335115.727  13044077.085
10 0 58444  22500.00000  0 -23299928.290     80560.735  10286874.935
10 0 58444  23400.00000  0 -24387114.381    -10473.150   7328948.340
10 0 58444  24300.00000  0 -25106561.111     17391.169   4227921.772
10 0 58444  25200.00000  0 -25434702.149    113840.744   1044299.710
10 0 58444  26100.00000  0 -25360817.377    225261.561  -2159729.134
10 0 58444  27000.00000  0 -24887481.015    297274.225  -5321526.877
10 0 58444  27900.00000  0 -24030463.994    277306.905  -8379254.537
10 0 58444  28800.00000  0 -22818093.736    117092.006 -11273106.144
10 0 58444  29700.00000  0 -21290098.307   -225021.819 -13946502.095
10 0 58444  30600.00000  0 -19495984.480   -782042.847 -16347216.016
10 0 58444  31500.00000  0 -17493019.657  -1576684.322 -18428410.930
10 0 58444  32400.00000  0 -15343904.628  -2620158.503 -20149563.014
10 0 58444  33300.00000  0 -13114237.289  -3911468.489 -21477254.100
10 0 58444  34200.00000  0 -10869875.873  -5437228.982 -22385817.331
10 0 58444  35100.00000  0  -8674313.834  -7172022.557 -22857824.038
10 0 58444  36000.00000  0  -6586177.350  -9079275.314 -22884403.564
10 0 58444  36900.00000  0  -4656949.938 -11112614.409 -22465391.511
10 0 58444  37800.00000  0  -2929018.256 -13217648.642 -21609305.539
10 0 58444  38700.00000  0  -1434119.163 -15334096.196 -20333151.321
10 0 58444  39600.00000  0   -192249.641 -17398169.778 -18662064.539
10 0 58444  40500.00000  0    788918.102 -19345118.691 -16628797.831
10 0 58444  41400.00000  0   1514095.052 -21111821.830 -14273064.279
10 0 58444  42300.00000  0   1999909.417 -22639324.015 -11640751.486
10 0 58444  43200.00000  0   2273938.934 -23875210.963  -8783022.380
10 0 58444  44100.00000  0   2373284.278 -24775725.592  -5755320.587
10 0 58444  45000.00000  0   2342746.801 -25307539.207  -2616299.670
10 0 58444  45900.00000  0   2232688.062 -25449105.830    573303.419
10 0 58444  46800.00000  0   2096661.019 -25191545.212   3751829.726
10 0 58444  47700.00000  0   1988913.638 -24539019.305   6857873.146
10 0 58444  48600.00000  0   1961868.537 -23508587.762   9831447.458
10 0 58444  49500.00000  0   2063682.912 -22129549.181  12615124.669
10 0 58444  50400.00000  0   2335991.406 -20442295.345  15155124.398
10 0 58444  51300.00000  0   2811924.956 -18496725.469  17402335.056
10 0 58444  52200.00000  0   3514487.688 -16350285.071  19313248.808
10 0 58444  53100.00000  0   4455361.025 -14065708.992  20850793.687
10 0 58444  54000.00000  0   5634185.178 -11708560.169  21985047.894
10 0 58444  54900.00000  0   7038349.439  -9344664.132  22693823.120
10 0 58444  55800.00000  0   8643303.200  -7037543.392  22963105.658
10 0 58444  56700.00000  0  10413377.144  -4845956.447  22787346.215
10 0 58444  57600.00000  0  12303083.710  -2821642.564  22169591.649
10 0 58444  58500.00000  0  14258846.450  -1007365.081  21121454.317
10 0 58444  59400.00000  0  16221089.042    564665.209  19662917.429
10 0 58444  60300.00000  0  18126599.603   1873919.759  17821977.666
10 0 58444  61200.00000  0  19911073.527   2912187.363  15634129.428
10 0 58444  62100.00000  0  21511729.313   3683686.364  13141698.272
10 0 58444  63000.00000  0  22869887.920   4204647.157  10393034.417
10 0 58444  63900.00000  0  23933406.211   4502382.234   7441580.511
10 0 58444  64800.00000  0  24658860.327   4613881.747   4344831.060
10 0 58444  65700.00000  0  25013384.792   4583993.103   1163203.807
10 0 58444  66600.00000  0  24976086.811   4463263.479  -2041154.027
10 0 58444  67500.00000  0  24538973.528   4305537.586  -5205599.747
10 0 58444  68400.00000  0  23707350.920   4165414.114  -8268243.181
10 0 58444  69300.00000  0  22499675.621   4095672.839 -11169181.727
10 0 58444  70200.00000  0  20946865.265   4144783.953 -13851695.667
10 0 58444  71100.00000  0  19091096.629   4354607.755 -16263377.925
10 0 58444  72000.00000  0  16984142.951   4758386.165 -18357174.045
10 0 58444  72900.00000  0  14685322.095   5379112.583 -20092310.531
10 0 58444  73800.00000  0  12259143.856   6228350.140 -21435092.603
10 0 58444  74700.00000  0   9772756.950   7305549.815 -22359555.623
10 0 58444  75600.00000  0   7293304.498   8597896.364 -22847958.109
10 0 58444  76500.00000  0   4885300.033  10080687.594 -22891107.924
10 0 58444  77400.00000  0   2608133.798  11718230.224 -22488516.964
10 0 58444  78300.00000  0    513813.007  13465212.656 -21648383.340
10 0 58444  79200.00000  0  -1354970.765  15268495.531 -20387403.545
10 0 58444  80100.00000  0  -2966369.338  17069243.795 -18730420.365
10 0 58444  81000.00000  0  -4300440.004  18805309.770 -16709915.351
10 0 58444  81900.00000  0  -5349700.651  20413767.271 -14365357.339
10 0 58444  82800.00000  0  -6119159.346  21833490.746 -11742421.001
10 0 58444  83700.00000  0  -6625820.515  23007672.332  -8892091.482
10 0 58444  84600.00000  0  -6897691.082  23886173.071  -5869672.914
10 0 58444  85500.00000  0  -6972332.055  24427611.331  -2733720.070
99