20181122 7819    aji 132914 134504 35 133709 ajisai_cpf_181121_8251.hts
20181122 7819    aji 152946 154731 57 153837 ajisai_cpf_181121_8251.hts
20181122 7819    aji 173620 174815 19 174216 ajisai_cpf_181121_8251.hts
20181122 7819    aji 194412 195207 13 194809 ajisai_cpf_181121_8251.hts
20181122 7819    aji 214533 220054 29 215314 ajisai_cpf_181121_8251.hts
20181122 7819    la1 215542 225323 87 222443 lageos1_cpf_181121_8251.hts
20181122 7819    la2 140506 151022 74 143700 lageos2_cpf_181121_8251.hts
20181122 7819    bec 122632 124021 87 123306 beaconc_cpf_181121_8251.hts
20181122 7819    bec 142131 143413 31 142736 beaconc_cpf_181121_8251.hts
20181122 7819    bec 161738 162929 23 162324 beaconc_cpf_181121_8251.hts
20181122 7819    bec 181156 182639 37 181908 beaconc_cpf_181121_8251.hts
20181122 7819    bec 200534 202205 84 201345 beaconc_cpf_181121_8251.hts
20181122 7819    bec 220119 221313 22 220717 beaconc_cpf_181121_8251.hts
20181122 7819    ci3 131748 232948 87 183118 compassi3_cpf_181120_8241.sha
